{
	"content": [
		{
			"idExterno": "535117",
			"funcionarioId": "37550",
			"funcionario": "AARON JOSE BOTAO PEREIRA",
			"cargo": "SUPERVISOR DE VIGILANCIA - HOT",
			"unidade": "GRANDE HOTEL SAO PEDRO - HOTEL ESCOLA SENAC",
			"unidadeSigla": "GHP",
			"setor": null,
			"funcao": null,
			"talentos": [
				{
					"id": 3,
					"ordem": 0
				},
				{
					"id": 4,
					"ordem": 1
				},
				{
					"id": 2,
					"ordem": 2
				},
				{
					"id": 31,
					"ordem": 3
				},
				{
					"id": 34,
					"ordem": 4
				},
				{
					"id": 7,
					"ordem": 5
				}
			]
		},
		{
			"idExterno": "557285",
			"funcionarioId": "34280",
			"funcionario": "ADRIANA DE JESUS RIBEIRO",
			"cargo": "TEC. DE DESENVOLVIMENTO PROFISSIONAL II",
			"unidade": "SENAC JABAQUARA",
			"unidadeSigla": "JBQ",
			"setor": null,
			"funcao": "Coordenador de negócios educacionais ",
			"talentos": [
				{
					"id": 21,
					"ordem": 0
				},
				{
					"id": 27,
					"ordem": 1
				},
				{
					"id": 29,
					"ordem": 2
				},
				{
					"id": 25,
					"ordem": 3
				},
				{
					"id": 5,
					"ordem": 4
				},
				{
					"id": 14,
					"ordem": 5
				},
				{
					"id": 10,
					"ordem": 6
				},
				{
					"id": 20,
					"ordem": 7
				},
				{
					"id": 1,
					"ordem": 8
				},
				{
					"id": 24,
					"ordem": 9
				}
			]
		},
		{
			"idExterno": "112836",
			"funcionarioId": "39405",
			"funcionario": "ADRIANA RAFAEL PINTO",
			"cargo": "BIBLIOTECARIO V",
			"unidade": "SENAC TIRADENTES",
			"unidadeSigla": "TIR",
			"setor": null,
			"funcao": "Bibliotecário",
			"talentos": [
				{
					"id": 29,
					"ordem": 0
				},
				{
					"id": 14,
					"ordem": 1
				},
				{
					"id": 10,
					"ordem": 2
				},
				{
					"id": 28,
					"ordem": 3
				},
				{
					"id": 21,
					"ordem": 4
				}
			]
		},
		{
			"idExterno": "318230",
			"funcionarioId": "33991",
			"funcionario": "ADRIANA SCATENA RITCHIE DE CARVALHO",
			"cargo": "TEC. DE DESENVOLVIMENTO PROFISSIONAL II",
			"unidade": "SENAC ARACATUBA",
			"unidadeSigla": "ACA",
			"setor": null,
			"funcao": "Coordenador de negócios educacionais ",
			"talentos": [
				{
					"id": 25,
					"ordem": 0
				},
				{
					"id": 23,
					"ordem": 1
				},
				{
					"id": 20,
					"ordem": 2
				},
				{
					"id": 27,
					"ordem": 3
				},
				{
					"id": 34,
					"ordem": 4
				},
				{
					"id": 24,
					"ordem": 5
				},
				{
					"id": 8,
					"ordem": 6
				},
				{
					"id": 21,
					"ordem": 7
				},
				{
					"id": 30,
					"ordem": 8
				},
				{
					"id": 4,
					"ordem": 9
				}
			]
		},
		{
			"idExterno": "161306",
			"funcionarioId": "39466",
			"funcionario": "ALECSANDRA GOMES",
			"cargo": "COORDENADOR DE SECRETARIA - III",
			"unidade": "SENAC VILA PRUDENTE",
			"unidadeSigla": "VPR",
			"setor": null,
			"funcao": null,
			"talentos": [
				{
					"id": 25,
					"ordem": 0
				},
				{
					"id": 29,
					"ordem": 1
				},
				{
					"id": 31,
					"ordem": 2
				},
				{
					"id": 13,
					"ordem": 3
				},
				{
					"id": 4,
					"ordem": 4
				}
			]
		},
		{
			"idExterno": "751748",
			"funcionarioId": "40251",
			"funcionario": "ALESSANDRA ALVES DE SOUZA",
			"cargo": "BIBLIOTECARIO III",
			"unidade": "SENAC SAO JOSE DO RIO PRETO",
			"unidadeSigla": "SJR",
			"setor": null,
			"funcao": "Bibliotecário",
			"talentos": [
				{
					"id": 12,
					"ordem": 0
				},
				{
					"id": 18,
					"ordem": 1
				},
				{
					"id": 3,
					"ordem": 2
				},
				{
					"id": 20,
					"ordem": 3
				},
				{
					"id": 13,
					"ordem": 4
				}
			]
		},
		{
			"idExterno": "680257",
			"funcionarioId": "41126",
			"funcionario": "ALESSANDRA MAGDA DOS SANTOS MERCANTE",
			"cargo": "TEC. DE DESENVOLVIMENTO PROFISSIONAL I",
			"unidade": "SENAC TABOAO DA SERRA",
			"unidadeSigla": "TBS",
			"setor": null,
			"funcao": "Coordenador de negócios educacionais ",
			"talentos": [
				{
					"id": 25,
					"ordem": 0
				},
				{
					"id": 1,
					"ordem": 1
				},
				{
					"id": 8,
					"ordem": 2
				},
				{
					"id": 19,
					"ordem": 3
				},
				{
					"id": 29,
					"ordem": 4
				},
				{
					"id": 28,
					"ordem": 5
				},
				{
					"id": 31,
					"ordem": 6
				},
				{
					"id": 14,
					"ordem": 7
				},
				{
					"id": 5,
					"ordem": 8
				},
				{
					"id": 21,
					"ordem": 9
				}
			]
		},
		{
			"idExterno": "80772",
			"funcionarioId": "34910",
			"funcionario": "ALESSANDRA MARIA PIGOLI STINGEL",
			"cargo": "COORDENADOR DE SECRETARIA - I - 37,5H",
			"unidade": "SENAC JAU",
			"unidadeSigla": "JAU",
			"setor": null,
			"funcao": "Coordenador de secretaria educacional",
			"talentos": [
				{
					"id": 19,
					"ordem": 0
				},
				{
					"id": 3,
					"ordem": 1
				},
				{
					"id": 11,
					"ordem": 2
				},
				{
					"id": 16,
					"ordem": 3
				},
				{
					"id": 30,
					"ordem": 4
				}
			]
		},
		{
			"idExterno": "611433",
			"funcionarioId": "38781",
			"funcionario": "ALESSANDRA MARIANO SA TELES MARQUES",
			"cargo": "ASSISTENTE DE SUPORTE TECNICO",
			"unidade": "GERENCIA DE TECNOLOGIA DA INFORMACAO",
			"unidadeSigla": "GTI",
			"setor": null,
			"funcao": "Assistente de suporte técnico - A",
			"talentos": [
				{
					"id": 14,
					"ordem": 0
				},
				{
					"id": 30,
					"ordem": 1
				},
				{
					"id": 27,
					"ordem": 2
				},
				{
					"id": 19,
					"ordem": 3
				},
				{
					"id": 11,
					"ordem": 4
				}
			]
		},
		{
			"idExterno": "288500",
			"funcionarioId": "38382",
			"funcionario": "ALESSANDRA VELLOSA DE AGUIAR BAPTISTELLA",
			"cargo": "TECNICO SUPERVISOR EDUCACIONAL - II",
			"unidade": "SENAC ARARAQUARA",
			"unidadeSigla": "ARA",
			"setor": null,
			"funcao": "Coordenador educacional",
			"talentos": [
				{
					"id": 21,
					"ordem": 0
				},
				{
					"id": 25,
					"ordem": 1
				},
				{
					"id": 30,
					"ordem": 2
				},
				{
					"id": 19,
					"ordem": 3
				},
				{
					"id": 8,
					"ordem": 4
				},
				{
					"id": 27,
					"ordem": 5
				},
				{
					"id": 22,
					"ordem": 6
				},
				{
					"id": 14,
					"ordem": 7
				},
				{
					"id": 29,
					"ordem": 8
				},
				{
					"id": 18,
					"ordem": 9
				}
			]
		}
	],
	"totalPages": 66,
	"totalElements": 657,
	"last": false,
	"first": true,
	"sort": [
		{
			"direction": "ASC",
			"property": "funcionario",
			"ignoreCase": false,
			"nullHandling": "NATIVE",
			"ascending": true
		}
	],
	"numberOfElements": 10,
	"size": 10,
	"number": 0
}